<?xml version="1.0" encoding="UTF-8"?>
<!DOCTYPE svg PUBLIC "-//W3C//DTD SVG 1.1//EN" "http://www.w3.org/Graphics/SVG/1.1/DTD/svg11.dtd">
<!-- Creator: CorelDRAW X6 -->
<svg xmlns="http://www.w3.org/2000/svg" xml:space="preserve" width="131.758mm" height="131.762mm" version="1.1" style="shape-rendering:geometricPrecision; text-rendering:geometricPrecision; image-rendering:optimizeQuality; fill-rule:evenodd; clip-rule:evenodd"
viewBox="0 0 18255 18256"
 xmlns:xlink="http://www.w3.org/1999/xlink"
 enable-background="new 0 0 512 512">
 <defs>
  <style type="text/css">
   <![CDATA[
    .fil0 {fill:#FEFEFE}
   ]]>
  </style>
 </defs>
 <g id="Слой_x0020_1">
  <metadata id="CorelCorpID_0Corel-Layer"/>
  <g id="_676969584">
   <path class="fil0" d="M18255 17300l-5265 -5266c1058,-1273 1695,-2907 1695,-4691 0,-4056 -3287,-7343 -7343,-7343 -4055,0 -7343,3287 -7343,7343 0,4055 3288,7343 7343,7343 1784,0 3419,-637 4691,-1695l5265 5266 956 -956zm-17483 -9957c0,-3623 2947,-6570 6570,-6570 3622,0 6570,2947 6570,6570 0,3623 -2948,6570 -6570,6570 -3623,0 -6570,-2947 -6570,-6570z"/>
   <rect class="fil0" x="3599" y="6981" width="7358" height="773"/>
   <rect class="fil0" x="6892" y="3688" width="773" height="7358"/>
  </g>
 </g>
</svg>
